<?xml version="1.0" encoding="utf-8"?>
<!-- Generator: Adobe Illustrator 21.0.0, SVG Export Plug-In . SVG Version: 6.00 Build 0)  -->
<svg version="1.1" id="Layer_1" xmlns="http://www.w3.org/2000/svg" xmlns:xlink="http://www.w3.org/1999/xlink" x="0px" y="0px"
	 viewBox="0 0 720 720" style="enable-background:new 0 0 720 720;" xml:space="preserve">
<style type="text/css">
	.st0{fill:#E83151;}
	.st1{fill:#FFFFFF;}
</style>
<rect class="st0" width="720" height="720"/>
<path class="st1" d="M435.8,476c19.9-3.3,39.7-24.3,39.7-49.9V238.5c0-26.5-22-50.8-51.8-50.8H296.2c-29.8,0-51.8,24.3-51.8,50.8
	V426c0,25.7,19.8,46.7,39.7,49.9l-59.7,90.9h34.4l42.6-63.4h116.9l42.7,63.4h34.4L435.8,476z M326.4,207c0-4.6,3.9-8.5,8.5-8.5h50.3
	c4.5,0,8.5,3.9,8.5,8.5v15c0,4.6-3.7,8.6-8.5,8.6h-50.3c-4.8,0-8.5-3.9-8.5-8.6V207z M272.2,267c0-14,9-26.3,25.8-26.3h124
	c16.9,0,25.8,12.2,25.8,26.3v33.7c0.2,16.2-11.5,26.2-25.8,26.2H297.9c-14.3,0-25.9-9.9-25.8-26.2V267H272.2z M295.1,448.7
	c-12.5,0-22.7-10.3-22.7-23.1s10.2-23.1,22.7-23.1s22.7,10.3,22.7,23.1S307.6,448.7,295.1,448.7z M401.6,425.6
	c0-12.8,10.2-23.1,22.7-23.1s22.7,10.3,22.7,23.1s-10.2,23.1-22.7,23.1C411.8,448.7,401.6,438.4,401.6,425.6z M393.4,167.7
	c0,8.1-6.5,14.5-14.3,14.5s-14.3-6.5-14.3-14.5c0-8.1,6.5-14.5,14.3-14.5S393.4,159.7,393.4,167.7z M355.3,167.7
	c0,8.1-6.5,14.5-14.3,14.5c-7.9,0-14.3-6.5-14.3-14.5c0-8.1,6.5-14.5,14.3-14.5S355.3,159.7,355.3,167.7z"/>
</svg>
